﻿{
  "profiles": {
    "Inf1010.Tp2.Server": {
      "commandName": "Project",
      "dotnetRunMessages": "true",
      "environmentVariables": {
        "DOTNET_ENVIRONMENT": "Development"
      }
    }
  }
}
